{
  "project_info": {
    "project_number": "438687144298",
    "firebase_url": "https://surveliance.firebaseio.com",
    "project_id": "surveliance",
    "storage_bucket": "surveliance.appspot.com"
  },
  "client": [
    {
      "client_info": {
        "mobilesdk_app_id": "1:438687144298:android:ed6dbf0646d1e343",
        "android_client_info": {
          "package_name": "com.survelliance.security.kigombola"
        }
      },
      "oauth_client": [
        {
          "client_id": "438687144298-30pbpq1po84t7dd3t7ag9eraricn9iuu.apps.googleusercontent.com",
          "client_type": 3
        }
      ],
      "api_key": [
        {
          "current_key": "AIzaSyDMGQEV9IJTk6ESWmxKpp8oMtEqjo8uIpw"
        }
      ],
      "services": {
        "analytics_service": {
          "status": 1
        },
        "appinvite_service": {
          "status": 1,
          "other_platform_oauth_client": []
        },
        "ads_service": {
          "status": 2
        }
      }
    }
  ],
  "configuration_version": "1"
}